Gov 50 Final Project
…
Data Analysis

library(tidyverse)
congress_114 <- read_csv("H114_members.csv")
poverty_by_district <- read_csv("tab1_poverty_cd_2017.csv")

congress_114

# A tibble: 442 × 23
   congress chamber   icpsr state_ic…¹ distr…² state…³ distr…⁴ party…⁵
      <dbl> <chr>     <dbl>      <dbl>   <dbl> <chr>   <chr>     <dbl>
 1      114 President 99911         99       0 USA     <NA>        100
 2      114 House     20301         41       3 AL      AL3         200
 3      114 House     21102         41       7 AL      AL7         100
 4      114 House     21192         41       2 AL      AL2         200
 5      114 House     21193         41       5 AL      AL5         200
 6      114 House     21376         41       1 AL      AL1         200
 7      114 House     21500         41       6 AL      AL6         200
 8      114 House     29701         41       4 AL      AL4         200
 9      114 House     14066         81       1 AK      AK1         200
10      114 House     20304         61       8 AZ      AZ8         200
# … with 432 more rows, 15 more variables: occupancy <dbl>,
#   last_means <dbl>, bioname <chr>, bioguide_id <chr>, born <dbl>,
#   died <dbl>, nominate_dim1 <dbl>, nominate_dim2 <dbl>,
#   nominate_log_likelihood <dbl>,
#   nominate_geo_mean_probability <dbl>,
#   nominate_number_of_votes <dbl>, nominate_number_of_errors <dbl>,
#   conditional <lgl>, nokken_poole_dim1 <dbl>, …

poverty_by_district

# A tibble: 436 × 8
   State       Congr…¹ Congr…² distr…³ Numbe…⁴ pover…⁵ Numbe…⁶ Percent
   <chr>         <dbl> <chr>   <chr>     <dbl>   <dbl>   <dbl>   <dbl>
 1 New York       3615 Congre… NY15     278534   0.362  463668   0.602
 2 Michigan       2613 Congre… MI13     196831   0.296  325773   0.490
 3 Kentucky       2105 Congre… KY5      195261   0.291  336103   0.501
 4 Texas          4834 Congre… TX34     197218   0.278  350383   0.493
 5 Louisiana      2202 Congre… LA2      210533   0.271  363722   0.467
 6 California      616 Congre… CA16     189477   0.267  353668   0.499
 7 Mississippi    2802 Congre… MI2      175751   0.262  329629   0.491
 8 Pennsylvan…    4202 Congre… PA2      180038   0.260  290442   0.419
 9 Texas          4815 Congre… TX15     198707   0.257  370435   0.479
10 Ohio           3911 Congre… OH11     167556   0.256  285767   0.436
# … with 426 more rows, and abbreviated variable names
#   ¹​`Congressional District ID`, ²​`Congressional District Name`,
#   ³​district_id, ⁴​Number...5, ⁵​poverty_rate, ⁶​Number...7

district_poverty <- poverty_by_district |>
  select(district_id, poverty_rate)

district_poverty

# A tibble: 436 × 2
   district_id poverty_rate
   <chr>              <dbl>
 1 NY15               0.362
 2 MI13               0.296
 3 KY5                0.291
 4 TX34               0.278
 5 LA2                0.271
 6 CA16               0.267
 7 MI2                0.262
 8 PA2                0.260
 9 TX15               0.257
10 OH11               0.256
# … with 426 more rows

congress_and_poverty <- congress_114 |>
  left_join(district_poverty) 

congress_and_poverty

# A tibble: 444 × 24
   congress chamber   icpsr state_ic…¹ distr…² state…³ distr…⁴ party…⁵
      <dbl> <chr>     <dbl>      <dbl>   <dbl> <chr>   <chr>     <dbl>
 1      114 President 99911         99       0 USA     <NA>        100
 2      114 House     20301         41       3 AL      AL3         200
 3      114 House     21102         41       7 AL      AL7         100
 4      114 House     21192         41       2 AL      AL2         200
 5      114 House     21193         41       5 AL      AL5         200
 6      114 House     21376         41       1 AL      AL1         200
 7      114 House     21500         41       6 AL      AL6         200
 8      114 House     29701         41       4 AL      AL4         200
 9      114 House     14066         81       1 AK      AK1         200
10      114 House     20304         61       8 AZ      AZ8         200
# … with 434 more rows, 16 more variables: occupancy <dbl>,
#   last_means <dbl>, bioname <chr>, bioguide_id <chr>, born <dbl>,
#   died <dbl>, nominate_dim1 <dbl>, nominate_dim2 <dbl>,
#   nominate_log_likelihood <dbl>,
#   nominate_geo_mean_probability <dbl>,
#   nominate_number_of_votes <dbl>, nominate_number_of_errors <dbl>,
#   conditional <lgl>, nokken_poole_dim1 <dbl>, …
…
